Date,ID,22[0] ,39[0] m3
2018/11/10 20:14:59,IJA0101-00007236,43,4.3
2018/11/10 20:29:59,IJA0101-00007236,46,4.6
2018/11/10 20:44:59,IJA0101-00007236,47,4.7
2018/11/10 20:59:59,IJA0101-00007236,49,4.9
2018/11/10 21:14:59,IJA0101-00007236,49,4.9
2018/11/10 21:29:59,IJA0101-00007236,52,5.2
2018/11/10 21:44:59,IJA0101-00007236,53,5.3
2018/11/10 21:59:59,IJA0101-00007236,55,5.5
2018/11/10 22:14:59,IJA0101-00007236,58,5.8
2018/11/10 22:29:59,IJA0101-00007236,61,6.1
2018/11/10 22:44:59,IJA0101-00007236,62,6.2
2018/11/10 22:59:59,IJA0101-00007236,65,6.5
2018/11/10 23:14:59,IJA0101-00007236,65,6.5
2018/11/10 23:29:59,IJA0101-00007236,66,6.6
2018/11/10 23:44:59,IJA0101-00007236,66,6.6
2018/11/10 23:59:59,IJA0101-00007236,67,6.7
