Date,ID,22[0] ,39[0] m3
2018/11/18 12:14:59,IJA0101-00007236,104,10.4
2018/11/18 12:29:59,IJA0101-00007236,103,10.3
2018/11/18 12:44:59,IJA0101-00007236,104,10.4
2018/11/18 12:59:59,IJA0101-00007236,97,9.7
2018/11/18 13:14:59,IJA0101-00007236,101,10.1
2018/11/18 13:29:59,IJA0101-00007236,97,9.7
2018/11/18 13:44:59,IJA0101-00007236,90,9
2018/11/18 13:59:59,IJA0101-00007236,95,9.5
2018/11/18 14:14:59,IJA0101-00007236,92,9.2
2018/11/18 14:29:59,IJA0101-00007236,87,8.7
2018/11/18 14:44:59,IJA0101-00007236,88,8.8
2018/11/18 14:59:59,IJA0101-00007236,89,8.9
2018/11/18 15:14:59,IJA0101-00007236,92,9.2
2018/11/18 15:29:59,IJA0101-00007236,103,10.3
2018/11/18 15:44:59,IJA0101-00007236,109,10.9
2018/11/18 15:59:59,IJA0101-00007236,108,10.8
