Date,ID,22[0] ,39[0] m3
2018/11/11 16:14:59,IJA0101-00007236,41,4.1
2018/11/11 16:29:59,IJA0101-00007236,40,4
2018/11/11 16:44:59,IJA0101-00007236,42,4.2
2018/11/11 16:59:59,IJA0101-00007236,40,4
2018/11/11 17:14:59,IJA0101-00007236,42,4.2
2018/11/11 17:29:59,IJA0101-00007236,41,4.1
2018/11/11 17:44:59,IJA0101-00007236,41,4.1
2018/11/11 17:59:59,IJA0101-00007236,43,4.3
2018/11/11 18:14:59,IJA0101-00007236,40,4
2018/11/11 18:29:59,IJA0101-00007236,38,3.8
2018/11/11 18:44:59,IJA0101-00007236,36,3.6
2018/11/11 18:59:59,IJA0101-00007236,40,4
2018/11/11 19:14:59,IJA0101-00007236,44,4.4
2018/11/11 19:29:59,IJA0101-00007236,46,4.6
2018/11/11 19:44:59,IJA0101-00007236,46,4.6
2018/11/11 19:59:59,IJA0101-00007236,47,4.7
