Date,ID,22[0] ,39[0] m3
2018/11/18 04:14:59,IJA0101-00007236,51,5.1
2018/11/18 04:29:59,IJA0101-00007236,53,5.3
2018/11/18 04:44:59,IJA0101-00007236,67,6.7
2018/11/18 04:59:59,IJA0101-00007236,71,7.1
2018/11/18 05:14:59,IJA0101-00007236,76,7.6
2018/11/18 05:29:59,IJA0101-00007236,89,8.9
2018/11/18 05:44:59,IJA0101-00007236,92,9.2
2018/11/18 05:59:59,IJA0101-00007236,96,9.6
2018/11/18 06:14:59,IJA0101-00007236,98,9.8
2018/11/18 06:29:59,IJA0101-00007236,101,10.1
2018/11/18 06:44:59,IJA0101-00007236,106,10.6
2018/11/18 06:59:59,IJA0101-00007236,106,10.6
2018/11/18 07:14:59,IJA0101-00007236,108,10.8
2018/11/18 07:29:59,IJA0101-00007236,108,10.8
2018/11/18 07:44:59,IJA0101-00007236,113,11.3
2018/11/18 07:59:59,IJA0101-00007236,116,11.6
