Date,ID,22[0] ,39[0] m3
2018/11/13 20:14:59,IJA0101-00007236,57,5.7
2018/11/13 20:29:59,IJA0101-00007236,60,6
2018/11/13 20:44:59,IJA0101-00007236,60,6
2018/11/13 20:59:59,IJA0101-00007236,61,6.1
2018/11/13 21:14:59,IJA0101-00007236,62,6.2
2018/11/13 21:29:59,IJA0101-00007236,62,6.2
2018/11/13 21:44:59,IJA0101-00007236,63,6.3
2018/11/13 21:59:59,IJA0101-00007236,65,6.5
2018/11/13 22:14:59,IJA0101-00007236,62,6.2
2018/11/13 22:29:59,IJA0101-00007236,63,6.3
2018/11/13 22:44:59,IJA0101-00007236,63,6.3
2018/11/13 22:59:59,IJA0101-00007236,64,6.4
2018/11/13 23:14:59,IJA0101-00007236,64,6.4
2018/11/13 23:29:59,IJA0101-00007236,64,6.4
2018/11/13 23:44:59,IJA0101-00007236,62,6.2
2018/11/13 23:59:59,IJA0101-00007236,61,6.1
