Date,ID,22[0] ,39[0] m3
2018/11/19 00:14:59,IJA0101-00007236,50,5
2018/11/19 00:29:59,IJA0101-00007236,50,5
2018/11/19 00:44:59,IJA0101-00007236,48,4.8
2018/11/19 00:59:59,IJA0101-00007236,47,4.7
2018/11/19 01:14:59,IJA0101-00007236,46,4.6
2018/11/19 01:29:59,IJA0101-00007236,46,4.6
2018/11/19 01:44:59,IJA0101-00007236,44,4.4
2018/11/19 01:59:59,IJA0101-00007236,46,4.6
2018/11/19 02:14:59,IJA0101-00007236,44,4.4
2018/11/19 02:29:59,IJA0101-00007236,41,4.1
2018/11/19 02:44:59,IJA0101-00007236,40,4
2018/11/19 02:59:59,IJA0101-00007236,39,3.9
2018/11/19 03:14:59,IJA0101-00007236,45,4.5
2018/11/19 03:29:59,IJA0101-00007236,45,4.5
2018/11/19 03:44:59,IJA0101-00007236,46,4.6
2018/11/19 03:59:59,IJA0101-00007236,48,4.8
