Date,ID,22[0] ,39[0] m3
2018/11/15 12:14:59,IJA0101-00007236,90,9
2018/11/15 12:29:59,IJA0101-00007236,94,9.4
2018/11/15 12:44:59,IJA0101-00007236,94,9.4
2018/11/15 12:59:59,IJA0101-00007236,92,9.2
2018/11/15 13:14:59,IJA0101-00007236,91,9.1
2018/11/15 13:29:59,IJA0101-00007236,91,9.1
2018/11/15 13:44:59,IJA0101-00007236,81,8.1
2018/11/15 13:59:59,IJA0101-00007236,83,8.3
2018/11/15 14:14:59,IJA0101-00007236,79,7.9
2018/11/15 14:29:59,IJA0101-00007236,81,8.1
2018/11/15 14:44:59,IJA0101-00007236,80,8
2018/11/15 14:59:59,IJA0101-00007236,81,8.1
2018/11/15 15:14:59,IJA0101-00007236,82,8.2
2018/11/15 15:29:59,IJA0101-00007236,94,9.4
2018/11/15 15:44:59,IJA0101-00007236,105,10.5
2018/11/15 15:59:59,IJA0101-00007236,106,10.6
