Date,ID,39[1] m3,34[0] m3/s
2018/11/09 15:00:00,IJA0101-00007236,15.3,0.009333
2018/11/09 15:15:00,IJA0101-00007236,24.8,0.010555
2018/11/09 15:30:00,IJA0101-00007236,35.2,0.011555
2018/11/09 15:45:00,IJA0101-00007236,45.7,0.011666
2018/11/09 16:00:00,IJA0101-00007236,57.1,0.012666
