Date,ID,39[1] m3,34[0] m3/s
2018/11/09 14:22:00,IJA0101-00007236,1.8,0
2018/11/09 14:23:00,IJA0101-00007236,1.8,0
2018/11/09 14:24:00,IJA0101-00007236,1.8,0
2018/11/09 14:25:00,IJA0101-00007236,2,0.003333
2018/11/09 14:26:00,IJA0101-00007236,2.9,0.015
2018/11/09 14:27:00,IJA0101-00007236,4.3,0.023333
2018/11/09 14:28:00,IJA0101-00007236,4.3,0
2018/11/09 14:29:00,IJA0101-00007236,4.3,0
2018/11/09 14:30:00,IJA0101-00007236,4.7,0.006666
2018/11/09 14:31:00,IJA0101-00007236,5.4,0.011666
2018/11/09 14:32:00,IJA0101-00007236,5.4,0
2018/11/09 14:33:00,IJA0101-00007236,5.4,0
2018/11/09 14:34:00,IJA0101-00007236,5.4,0
2018/11/09 14:35:00,IJA0101-00007236,5.4,0
2018/11/09 14:36:00,IJA0101-00007236,5.4,0
2018/11/09 14:37:00,IJA0101-00007236,5.4,0
2018/11/09 14:38:00,IJA0101-00007236,5.4,0
2018/11/09 14:39:00,IJA0101-00007236,5.4,0
2018/11/09 14:40:00,IJA0101-00007236,5.4,0
2018/11/09 14:41:00,IJA0101-00007236,5.4,0
2018/11/09 14:42:00,IJA0101-00007236,5.4,0
2018/11/09 14:43:00,IJA0101-00007236,5.9,0.008333
2018/11/09 14:44:00,IJA0101-00007236,6.4,0.008333
2018/11/09 14:45:00,IJA0101-00007236,6.9,0.008333
