Date,ID,39[1] m3,34[0] m3/s
2018/11/17 00:15:00,IJA0101-00007236,4671.3,0.006111
2018/11/17 00:30:00,IJA0101-00007236,4676.8,0.006111
2018/11/17 00:45:00,IJA0101-00007236,4682.2,0.006
2018/11/17 01:00:00,IJA0101-00007236,4687.6,0.006
2018/11/17 01:15:00,IJA0101-00007236,4692.5,0.005444
2018/11/17 01:30:00,IJA0101-00007236,4697.3,0.005333
2018/11/17 01:45:00,IJA0101-00007236,4702.2,0.005444
2018/11/17 02:00:00,IJA0101-00007236,4706.7,0.005
2018/11/17 02:15:00,IJA0101-00007236,4711.3,0.005111
2018/11/17 02:30:00,IJA0101-00007236,4715.9,0.005111
2018/11/17 02:45:00,IJA0101-00007236,4720.4,0.005
2018/11/17 03:00:00,IJA0101-00007236,4725,0.005111
2018/11/17 03:15:00,IJA0101-00007236,4729.4,0.004888
2018/11/17 03:30:00,IJA0101-00007236,4734.1,0.005222
2018/11/17 03:45:00,IJA0101-00007236,4738.6,0.005
2018/11/17 04:00:00,IJA0101-00007236,4743.2,0.005111
