Date,ID,39[1] m3,34[0] m3/s
2018/11/19 20:15:00,IJA0101-00007236,7021.7,0.009333
2018/11/19 20:30:00,IJA0101-00007236,7029.1,0.008222
2018/11/19 20:45:00,IJA0101-00007236,7036.7,0.008444
2018/11/19 21:00:00,IJA0101-00007236,7043.6,0.007666
2018/11/19 21:15:00,IJA0101-00007236,7050.4,0.007555
2018/11/19 21:30:00,IJA0101-00007236,7057,0.007333
2018/11/19 21:45:00,IJA0101-00007236,7063.6,0.007333
2018/11/19 22:00:00,IJA0101-00007236,7069.7,0.006777
2018/11/19 22:15:00,IJA0101-00007236,7077.1,0.008222
2018/11/19 22:30:00,IJA0101-00007236,7083.8,0.007444
2018/11/19 22:45:00,IJA0101-00007236,7090.3,0.007222
2018/11/19 23:00:00,IJA0101-00007236,7096.7,0.007111
2018/11/19 23:15:00,IJA0101-00007236,7102.1,0.006
2018/11/19 23:30:00,IJA0101-00007236,7107.8,0.006333
2018/11/19 23:45:00,IJA0101-00007236,7113.6,0.006444
2018/11/20 00:00:00,IJA0101-00007236,7118.8,0.005777
