Date,ID,39[1] m3,34[0] m3/s
2018/11/19 08:15:00,IJA0101-00007236,6583.1,0.013111
2018/11/19 08:30:00,IJA0101-00007236,6593.9,0.012
2018/11/19 08:45:00,IJA0101-00007236,6604.5,0.011777
2018/11/19 09:00:00,IJA0101-00007236,6614.7,0.011333
2018/11/19 09:15:00,IJA0101-00007236,6624.8,0.011222
2018/11/19 09:30:00,IJA0101-00007236,6634.7,0.011
2018/11/19 09:45:00,IJA0101-00007236,6644.4,0.010777
2018/11/19 10:00:00,IJA0101-00007236,6653.5,0.010111
2018/11/19 10:15:00,IJA0101-00007236,6662.1,0.009555
2018/11/19 10:30:00,IJA0101-00007236,6670.6,0.009444
2018/11/19 10:45:00,IJA0101-00007236,6678.3,0.008555
2018/11/19 11:00:00,IJA0101-00007236,6686.5,0.009111
2018/11/19 11:15:00,IJA0101-00007236,6694.2,0.008555
2018/11/19 11:30:00,IJA0101-00007236,6701.8,0.008444
2018/11/19 11:45:00,IJA0101-00007236,6709.4,0.008444
2018/11/19 12:00:00,IJA0101-00007236,6716.9,0.008333
