Date,ID,39[1] m3,34[0] m3/s
2018/11/14 20:15:00,IJA0101-00007236,2870.3,0.009444
2018/11/14 20:30:00,IJA0101-00007236,2878.9,0.009555
2018/11/14 20:45:00,IJA0101-00007236,2887.5,0.009555
2018/11/14 21:00:00,IJA0101-00007236,2896.1,0.009555
2018/11/14 21:15:00,IJA0101-00007236,2904.8,0.009666
2018/11/14 21:30:00,IJA0101-00007236,2913.5,0.009666
2018/11/14 21:45:00,IJA0101-00007236,2921.5,0.008888
2018/11/14 22:00:00,IJA0101-00007236,2929.4,0.008777
2018/11/14 22:15:00,IJA0101-00007236,2936.9,0.008333
2018/11/14 22:30:00,IJA0101-00007236,2944.2,0.008111
2018/11/14 22:45:00,IJA0101-00007236,2951.6,0.008222
2018/11/14 23:00:00,IJA0101-00007236,2958.7,0.007888
2018/11/14 23:15:00,IJA0101-00007236,2965.5,0.007555
2018/11/14 23:30:00,IJA0101-00007236,2972.1,0.007333
2018/11/14 23:45:00,IJA0101-00007236,2978.3,0.006888
2018/11/15 00:00:00,IJA0101-00007236,2984.8,0.007222
