Date,ID,39[1] m3,34[0] m3/s
2018/11/10 16:15:00,IJA0101-00007236,460.1,0.003888
2018/11/10 16:30:00,IJA0101-00007236,463.5,0.003777
2018/11/10 16:45:00,IJA0101-00007236,466.8,0.003666
2018/11/10 17:00:00,IJA0101-00007236,470.1,0.003666
2018/11/10 17:15:00,IJA0101-00007236,473.6,0.003888
2018/11/10 17:30:00,IJA0101-00007236,477.1,0.003888
2018/11/10 17:45:00,IJA0101-00007236,480.5,0.003777
2018/11/10 18:00:00,IJA0101-00007236,483.9,0.003777
2018/11/10 18:15:00,IJA0101-00007236,487.1,0.003555
2018/11/10 18:30:00,IJA0101-00007236,490.1,0.003333
2018/11/10 18:45:00,IJA0101-00007236,493,0.003222
2018/11/10 19:00:00,IJA0101-00007236,496.2,0.003555
2018/11/10 19:15:00,IJA0101-00007236,499.7,0.003888
2018/11/10 19:30:00,IJA0101-00007236,503.6,0.004333
2018/11/10 19:45:00,IJA0101-00007236,507.5,0.004333
2018/11/10 20:00:00,IJA0101-00007236,511.6,0.004555
