Date,ID,39[1] m3,34[0] m3/s
2018/11/10 12:15:00,IJA0101-00007236,399.5,0.004
2018/11/10 12:30:00,IJA0101-00007236,403.1,0.004
2018/11/10 12:45:00,IJA0101-00007236,406.7,0.004
2018/11/10 13:00:00,IJA0101-00007236,410.2,0.003888
2018/11/10 13:15:00,IJA0101-00007236,413.7,0.003888
2018/11/10 13:30:00,IJA0101-00007236,417.3,0.004
2018/11/10 13:45:00,IJA0101-00007236,421,0.004111
2018/11/10 14:00:00,IJA0101-00007236,425,0.004444
2018/11/10 14:15:00,IJA0101-00007236,428.8,0.004222
2018/11/10 14:30:00,IJA0101-00007236,432.9,0.004555
2018/11/10 14:45:00,IJA0101-00007236,437,0.004555
2018/11/10 15:00:00,IJA0101-00007236,441.2,0.004666
2018/11/10 15:15:00,IJA0101-00007236,445.3,0.004555
2018/11/10 15:30:00,IJA0101-00007236,449.2,0.004333
2018/11/10 15:45:00,IJA0101-00007236,453,0.004222
2018/11/10 16:00:00,IJA0101-00007236,456.6,0.004
