Date,ID,39[1] m3,34[0] m3/s
2018/11/13 00:15:00,IJA0101-00007236,1703.8,0.007222
2018/11/13 00:30:00,IJA0101-00007236,1710.4,0.007333
2018/11/13 00:45:00,IJA0101-00007236,1717,0.007333
2018/11/13 01:00:00,IJA0101-00007236,1723.6,0.007333
2018/11/13 01:15:00,IJA0101-00007236,1730.2,0.007333
2018/11/13 01:30:00,IJA0101-00007236,1737.1,0.007666
2018/11/13 01:45:00,IJA0101-00007236,1743.9,0.007555
2018/11/13 02:00:00,IJA0101-00007236,1750.4,0.007222
2018/11/13 02:15:00,IJA0101-00007236,1757.1,0.007444
2018/11/13 02:30:00,IJA0101-00007236,1763.5,0.007111
2018/11/13 02:45:00,IJA0101-00007236,1770.2,0.007444
2018/11/13 03:00:00,IJA0101-00007236,1776.7,0.007222
2018/11/13 03:15:00,IJA0101-00007236,1783.1,0.007111
2018/11/13 03:30:00,IJA0101-00007236,1789.5,0.007111
2018/11/13 03:45:00,IJA0101-00007236,1795.8,0.007
2018/11/13 04:00:00,IJA0101-00007236,1801.8,0.006666
