Date,ID,39[1] m3,34[0] m3/s
2018/11/12 04:15:00,IJA0101-00007236,1243.4,0.007444
2018/11/12 04:30:00,IJA0101-00007236,1249.7,0.007
2018/11/12 04:45:00,IJA0101-00007236,1255.8,0.006777
2018/11/12 05:00:00,IJA0101-00007236,1261.8,0.006666
2018/11/12 05:15:00,IJA0101-00007236,1267.2,0.006
2018/11/12 05:30:00,IJA0101-00007236,1272.4,0.005777
2018/11/12 05:45:00,IJA0101-00007236,1277.2,0.005333
2018/11/12 06:00:00,IJA0101-00007236,1282,0.005333
2018/11/12 06:15:00,IJA0101-00007236,1286.6,0.005111
2018/11/12 06:30:00,IJA0101-00007236,1291.3,0.005222
2018/11/12 06:45:00,IJA0101-00007236,1295.9,0.005111
2018/11/12 07:00:00,IJA0101-00007236,1300.6,0.005222
2018/11/12 07:15:00,IJA0101-00007236,1305.3,0.005222
2018/11/12 07:30:00,IJA0101-00007236,1310,0.005222
2018/11/12 07:45:00,IJA0101-00007236,1314.5,0.005
2018/11/12 08:00:00,IJA0101-00007236,1319,0.005
