Date,ID,39[1] m3,34[0] m3/s
2018/11/17 08:15:00,IJA0101-00007236,4922.9,0.012888
2018/11/17 08:30:00,IJA0101-00007236,4934.5,0.012888
2018/11/17 08:45:00,IJA0101-00007236,4946.1,0.012888
2018/11/17 09:00:00,IJA0101-00007236,4957.7,0.012888
2018/11/17 09:15:00,IJA0101-00007236,4969.7,0.013333
2018/11/17 09:30:00,IJA0101-00007236,4981.6,0.013222
2018/11/17 09:45:00,IJA0101-00007236,4992.8,0.012444
2018/11/17 10:00:00,IJA0101-00007236,5003.7,0.012111
2018/11/17 10:15:00,IJA0101-00007236,5014.5,0.012
2018/11/17 10:30:00,IJA0101-00007236,5025.1,0.011777
2018/11/17 10:45:00,IJA0101-00007236,5035.1,0.011111
2018/11/17 11:00:00,IJA0101-00007236,5045.1,0.011111
2018/11/17 11:15:00,IJA0101-00007236,5054.4,0.010333
2018/11/17 11:30:00,IJA0101-00007236,5063.7,0.010333
2018/11/17 11:45:00,IJA0101-00007236,5072.7,0.01
2018/11/17 12:00:00,IJA0101-00007236,5082.2,0.010555
