Date,ID,39[1] m3,34[0] m3/s
2018/11/16 04:15:00,IJA0101-00007236,3903.9,0.006
2018/11/16 04:30:00,IJA0101-00007236,3909.7,0.006444
2018/11/16 04:45:00,IJA0101-00007236,3917.8,0.009
2018/11/16 05:00:00,IJA0101-00007236,3926.7,0.009888
2018/11/16 05:15:00,IJA0101-00007236,3936.6,0.011
2018/11/16 05:30:00,IJA0101-00007236,3946.6,0.011111
2018/11/16 05:45:00,IJA0101-00007236,3958.4,0.013111
2018/11/16 06:00:00,IJA0101-00007236,3971.1,0.014111
2018/11/16 06:15:00,IJA0101-00007236,3984.3,0.014666
2018/11/16 06:30:00,IJA0101-00007236,3997.7,0.014888
2018/11/16 06:45:00,IJA0101-00007236,4011.5,0.015333
2018/11/16 07:00:00,IJA0101-00007236,4024.9,0.014888
2018/11/16 07:15:00,IJA0101-00007236,4038.1,0.014666
2018/11/16 07:30:00,IJA0101-00007236,4051.4,0.014777
2018/11/16 07:45:00,IJA0101-00007236,4064.6,0.014666
2018/11/16 08:00:00,IJA0101-00007236,4076.8,0.013555
