Date,ID,10[0] mA,37[0] bar
2018/11/17 20:15:00,IJA0101-00007236,5.94,1.21
2018/11/17 20:30:00,IJA0101-00007236,5.99,1.24
2018/11/17 20:45:00,IJA0101-00007236,6.05,1.28
2018/11/17 21:00:00,IJA0101-00007236,6.13,1.33
2018/11/17 21:15:00,IJA0101-00007236,6.12,1.32
2018/11/17 21:30:00,IJA0101-00007236,6.15,1.34
2018/11/17 21:45:00,IJA0101-00007236,6.16,1.34
2018/11/17 22:00:00,IJA0101-00007236,6.13,1.33
2018/11/17 22:15:00,IJA0101-00007236,6.21,1.38
2018/11/17 22:30:00,IJA0101-00007236,6.21,1.38
2018/11/17 22:45:00,IJA0101-00007236,6.26,1.41
2018/11/17 23:00:00,IJA0101-00007236,6.31,1.44
2018/11/17 23:15:00,IJA0101-00007236,6.35,1.46
2018/11/17 23:30:00,IJA0101-00007236,6.47,1.54
2018/11/17 23:45:00,IJA0101-00007236,6.53,1.58
2018/11/18 00:00:00,IJA0101-00007236,6.62,1.63
