Date,ID,10[0] mA,37[0] bar
2018/11/16 00:15:00,IJA0101-00007236,6.84,1.77
2018/11/16 00:30:00,IJA0101-00007236,6.87,1.79
2018/11/16 00:45:00,IJA0101-00007236,6.95,1.84
2018/11/16 01:00:00,IJA0101-00007236,6.94,1.83
2018/11/16 01:15:00,IJA0101-00007236,6.99,1.86
2018/11/16 01:30:00,IJA0101-00007236,7.02,1.88
2018/11/16 01:45:00,IJA0101-00007236,7.03,1.89
2018/11/16 02:00:00,IJA0101-00007236,7.05,1.9
2018/11/16 02:15:00,IJA0101-00007236,7.08,1.92
2018/11/16 02:30:00,IJA0101-00007236,7.05,1.9
2018/11/16 02:45:00,IJA0101-00007236,7.03,1.89
2018/11/16 03:00:00,IJA0101-00007236,7.01,1.88
2018/11/16 03:15:00,IJA0101-00007236,7.06,1.91
2018/11/16 03:30:00,IJA0101-00007236,7.01,1.88
2018/11/16 03:45:00,IJA0101-00007236,7.02,1.88
2018/11/16 04:00:00,IJA0101-00007236,6.94,1.83
