Date,ID,10[0] mA,37[0] bar
2018/11/15 00:15:00,IJA0101-00007236,5.87,1.16
2018/11/15 00:30:00,IJA0101-00007236,5.91,1.19
2018/11/15 00:45:00,IJA0101-00007236,6,1.25
2018/11/15 01:00:00,IJA0101-00007236,6.02,1.26
2018/11/15 01:15:00,IJA0101-00007236,6.07,1.29
2018/11/15 01:30:00,IJA0101-00007236,5.83,1.14
2018/11/15 01:45:00,IJA0101-00007236,5.91,1.19
2018/11/15 02:00:00,IJA0101-00007236,6.07,1.29
2018/11/15 02:15:00,IJA0101-00007236,6.17,1.35
2018/11/15 02:30:00,IJA0101-00007236,6.21,1.38
2018/11/15 02:45:00,IJA0101-00007236,6.27,1.41
2018/11/15 03:00:00,IJA0101-00007236,6.29,1.43
2018/11/15 03:15:00,IJA0101-00007236,6.29,1.43
2018/11/15 03:30:00,IJA0101-00007236,6.29,1.43
2018/11/15 03:45:00,IJA0101-00007236,6.28,1.42
2018/11/15 04:00:00,IJA0101-00007236,6.25,1.4
