Date,ID,10[0] mA,37[0] bar
2018/11/18 04:15:00,IJA0101-00007236,6.77,1.73
2018/11/18 04:30:00,IJA0101-00007236,6.3,1.43
2018/11/18 04:45:00,IJA0101-00007236,6.19,1.36
2018/11/18 05:00:00,IJA0101-00007236,6.09,1.3
2018/11/18 05:15:00,IJA0101-00007236,5.9,1.18
2018/11/18 05:30:00,IJA0101-00007236,5.82,1.13
2018/11/18 05:45:00,IJA0101-00007236,5.75,1.09
2018/11/18 06:00:00,IJA0101-00007236,5.68,1.04
2018/11/18 06:15:00,IJA0101-00007236,5.68,1.04
2018/11/18 06:30:00,IJA0101-00007236,5.59,0.99
2018/11/18 06:45:00,IJA0101-00007236,5.57,0.98
2018/11/18 07:00:00,IJA0101-00007236,5.6,0.99
2018/11/18 07:15:00,IJA0101-00007236,5.59,0.99
2018/11/18 07:30:00,IJA0101-00007236,5.5,0.93
2018/11/18 07:45:00,IJA0101-00007236,5.47,0.91
2018/11/18 08:00:00,IJA0101-00007236,5.46,0.91
