Date,ID,10[0] mA,37[0] bar
2018/11/18 16:15:00,IJA0101-00007236,5.52,0.95
2018/11/18 16:30:00,IJA0101-00007236,5.52,0.95
2018/11/18 16:45:00,IJA0101-00007236,5.48,0.92
2018/11/18 17:00:00,IJA0101-00007236,5.49,0.93
2018/11/18 17:15:00,IJA0101-00007236,5.53,0.95
2018/11/18 17:30:00,IJA0101-00007236,5.5,0.93
2018/11/18 17:45:00,IJA0101-00007236,5.54,0.96
2018/11/18 18:00:00,IJA0101-00007236,5.61,1
2018/11/18 18:15:00,IJA0101-00007236,5.53,0.95
2018/11/18 18:30:00,IJA0101-00007236,5.36,0.85
2018/11/18 18:45:00,IJA0101-00007236,5.44,0.9
2018/11/18 19:00:00,IJA0101-00007236,5.62,1.01
2018/11/18 19:15:00,IJA0101-00007236,5.75,1.09
2018/11/18 19:30:00,IJA0101-00007236,5.87,1.16
2018/11/18 19:45:00,IJA0101-00007236,5.84,1.15
2018/11/18 20:00:00,IJA0101-00007236,5.94,1.21
