Date,ID,10[0] mA,4[0] 
2018/11/20 04:15:00,IJA0101-00007765,8.93,1.214013
2018/11/20 04:30:00,IJA0101-00007765,8.92,1.21155
2018/11/20 04:45:00,IJA0101-00007765,8.92,1.21155
2018/11/20 05:00:00,IJA0101-00007765,8.92,1.21155
2018/11/20 05:15:00,IJA0101-00007765,8.92,1.21155
2018/11/20 05:30:00,IJA0101-00007765,8.92,1.21155
2018/11/20 05:45:00,IJA0101-00007765,8.93,1.214013
2018/11/20 06:00:00,IJA0101-00007765,8.93,1.214013
2018/11/20 06:15:00,IJA0101-00007765,8.92,1.21155
2018/11/20 06:30:00,IJA0101-00007765,8.92,1.21155
2018/11/20 06:45:00,IJA0101-00007765,8.92,1.21155
2018/11/20 07:00:00,IJA0101-00007765,8.92,1.21155
2018/11/20 07:15:00,IJA0101-00007765,8.92,1.21155
2018/11/20 07:30:00,IJA0101-00007765,8.92,1.21155
2018/11/20 07:45:00,IJA0101-00007765,8.92,1.21155
2018/11/20 08:00:00,IJA0101-00007765,8.92,1.21155
