Date,ID,10[0] mA,4[0] 
2018/11/11 12:15:00,IJA0101-00007765,8.85,1.194313
2018/11/11 12:30:00,IJA0101-00007765,8.85,1.194313
2018/11/11 12:45:00,IJA0101-00007765,8.85,1.194313
2018/11/11 13:00:00,IJA0101-00007765,8.85,1.194313
2018/11/11 13:15:00,IJA0101-00007765,8.85,1.194313
2018/11/11 13:30:00,IJA0101-00007765,8.85,1.194313
2018/11/11 13:45:00,IJA0101-00007765,8.85,1.196775
2018/11/11 14:00:00,IJA0101-00007765,8.85,1.196775
2018/11/11 14:15:00,IJA0101-00007765,8.85,1.196775
2018/11/11 14:30:00,IJA0101-00007765,8.85,1.196775
2018/11/11 14:45:00,IJA0101-00007765,8.85,1.196775
2018/11/11 15:00:00,IJA0101-00007765,8.85,1.196775
2018/11/11 15:15:00,IJA0101-00007765,8.85,1.196775
2018/11/11 15:30:00,IJA0101-00007765,8.85,1.196775
2018/11/11 15:45:00,IJA0101-00007765,8.85,1.196775
2018/11/11 16:00:00,IJA0101-00007765,8.85,1.196775
