Date,ID,10[0] mA,4[0] 
2018/11/14 16:15:00,IJA0101-00007765,8.88,1.2017
2018/11/14 16:30:00,IJA0101-00007765,8.87,1.199237
2018/11/14 16:45:00,IJA0101-00007765,8.88,1.2017
2018/11/14 17:00:00,IJA0101-00007765,8.87,1.199237
2018/11/14 17:15:00,IJA0101-00007765,8.87,1.199237
2018/11/14 17:30:00,IJA0101-00007765,8.87,1.199237
2018/11/14 17:45:00,IJA0101-00007765,8.87,1.199237
2018/11/14 18:00:00,IJA0101-00007765,8.88,1.2017
2018/11/14 18:15:00,IJA0101-00007765,8.87,1.199237
2018/11/14 18:30:00,IJA0101-00007765,8.87,1.199237
2018/11/14 18:45:00,IJA0101-00007765,8.87,1.199237
2018/11/14 19:00:00,IJA0101-00007765,8.88,1.2017
2018/11/14 19:15:00,IJA0101-00007765,8.87,1.199237
2018/11/14 19:30:00,IJA0101-00007765,8.87,1.199237
2018/11/14 19:45:00,IJA0101-00007765,8.87,1.199237
2018/11/14 20:00:00,IJA0101-00007765,8.87,1.199237
