Date,ID,10[0] mA,4[0] 
2018/11/10 08:15:00,IJA0101-00007765,8.83,1.189387
2018/11/10 08:30:00,IJA0101-00007765,8.83,1.189387
2018/11/10 08:45:00,IJA0101-00007765,8.83,1.189387
2018/11/10 09:00:00,IJA0101-00007765,8.83,1.189387
2018/11/10 09:15:00,IJA0101-00007765,8.83,1.189387
2018/11/10 09:30:00,IJA0101-00007765,8.84,1.19185
2018/11/10 09:45:00,IJA0101-00007765,8.84,1.19185
2018/11/10 10:00:00,IJA0101-00007765,8.83,1.189387
2018/11/10 10:15:00,IJA0101-00007765,8.84,1.19185
2018/11/10 10:30:00,IJA0101-00007765,8.84,1.19185
2018/11/10 10:45:00,IJA0101-00007765,8.84,1.19185
2018/11/10 11:00:00,IJA0101-00007765,8.84,1.19185
2018/11/10 11:15:00,IJA0101-00007765,8.84,1.19185
2018/11/10 11:30:00,IJA0101-00007765,8.83,1.189387
2018/11/10 11:45:00,IJA0101-00007765,8.84,1.19185
2018/11/10 12:00:00,IJA0101-00007765,8.84,1.19185
