Date,ID,39[1] m3,34[0] m3/s
2018/11/13 08:15:00,IJA0101-00007754,205,0
2018/11/13 08:30:00,IJA0101-00007754,205,0
2018/11/13 08:45:00,IJA0101-00007754,205,0
2018/11/13 09:00:00,IJA0101-00007754,205,0
2018/11/13 09:15:00,IJA0101-00007754,205,0
2018/11/13 09:30:00,IJA0101-00007754,205,0
2018/11/13 09:45:00,IJA0101-00007754,205,0
2018/11/13 10:00:00,IJA0101-00007754,205,0
2018/11/13 10:15:00,IJA0101-00007754,205,0
2018/11/13 10:30:00,IJA0101-00007754,205,0
2018/11/13 10:45:00,IJA0101-00007754,205,0
2018/11/13 11:00:00,IJA0101-00007754,205,0
2018/11/13 11:15:00,IJA0101-00007754,205,0
2018/11/13 11:30:00,IJA0101-00007754,205,0
2018/11/13 11:45:00,IJA0101-00007754,205,0
2018/11/13 12:00:00,IJA0101-00007754,205,0
