Date,ID,39[1] m3,34[0] m3/s
2018/11/19 16:15:00,IJA0101-00007754,205,0
2018/11/19 16:30:00,IJA0101-00007754,205,0
2018/11/19 16:45:00,IJA0101-00007754,205,0
2018/11/19 17:00:00,IJA0101-00007754,205,0
2018/11/19 17:15:00,IJA0101-00007754,205,0
2018/11/19 17:30:00,IJA0101-00007754,205,0
2018/11/19 17:45:00,IJA0101-00007754,205,0
2018/11/19 18:00:00,IJA0101-00007754,205,0
2018/11/19 18:15:00,IJA0101-00007754,205,0
2018/11/19 18:30:00,IJA0101-00007754,205,0
2018/11/19 18:45:00,IJA0101-00007754,205,0
2018/11/19 19:00:00,IJA0101-00007754,205,0
2018/11/19 19:15:00,IJA0101-00007754,205,0
2018/11/19 19:30:00,IJA0101-00007754,205,0
2018/11/19 19:45:00,IJA0101-00007754,205,0
2018/11/19 20:00:00,IJA0101-00007754,205,0
