Date,ID,39[1] m3,34[0] m3/s
2018/11/14 12:15:00,IJA0101-00007754,205,0
2018/11/14 12:30:00,IJA0101-00007754,205,0
2018/11/14 12:45:00,IJA0101-00007754,205,0
2018/11/14 13:00:00,IJA0101-00007754,205,0
2018/11/14 13:15:00,IJA0101-00007754,205,0
2018/11/14 13:30:00,IJA0101-00007754,205,0
2018/11/14 13:45:00,IJA0101-00007754,205,0
2018/11/14 14:00:00,IJA0101-00007754,205,0
2018/11/14 14:15:00,IJA0101-00007754,205,0
2018/11/14 14:30:00,IJA0101-00007754,205,0
2018/11/14 14:45:00,IJA0101-00007754,205,0
2018/11/14 15:00:00,IJA0101-00007754,205,0
2018/11/14 15:15:00,IJA0101-00007754,205,0
2018/11/14 15:30:00,IJA0101-00007754,205,0
2018/11/14 15:45:00,IJA0101-00007754,205,0
2018/11/14 16:00:00,IJA0101-00007754,205,0
