Date,ID,10[0] mA,37[0] bar
2018/11/14 08:15:00,IJA0101-00007754,0,-5
2018/11/14 08:30:00,IJA0101-00007754,0,-5
2018/11/14 08:45:00,IJA0101-00007754,0,-5
2018/11/14 09:00:00,IJA0101-00007754,0,-5
2018/11/14 09:15:00,IJA0101-00007754,0,-5
2018/11/14 09:30:00,IJA0101-00007754,0,-5
2018/11/14 09:45:00,IJA0101-00007754,0,-5
2018/11/14 10:00:00,IJA0101-00007754,0,-5
2018/11/14 10:15:00,IJA0101-00007754,0,-5
2018/11/14 10:30:00,IJA0101-00007754,0,-5
2018/11/14 10:45:00,IJA0101-00007754,0,-5
2018/11/14 11:00:00,IJA0101-00007754,0,-5
2018/11/14 11:15:00,IJA0101-00007754,0,-5
2018/11/14 11:30:00,IJA0101-00007754,0,-5
2018/11/14 11:45:00,IJA0101-00007754,0,-5
2018/11/14 12:00:00,IJA0101-00007754,0,-5
