Date,ID,10[0] mA,37[0] bar
2018/11/16 00:15:00,IJA0101-00007754,0,-5
2018/11/16 00:30:00,IJA0101-00007754,0,-5
2018/11/16 00:45:00,IJA0101-00007754,0,-5
2018/11/16 01:00:00,IJA0101-00007754,0,-5
2018/11/16 01:15:00,IJA0101-00007754,0,-5
2018/11/16 01:30:00,IJA0101-00007754,0,-5
2018/11/16 01:45:00,IJA0101-00007754,0,-5
2018/11/16 02:00:00,IJA0101-00007754,0,-5
2018/11/16 02:15:00,IJA0101-00007754,0,-5
2018/11/16 02:30:00,IJA0101-00007754,0,-5
2018/11/16 02:45:00,IJA0101-00007754,0,-5
2018/11/16 03:00:00,IJA0101-00007754,0,-5
2018/11/16 03:15:00,IJA0101-00007754,0,-5
2018/11/16 03:30:00,IJA0101-00007754,0,-5
2018/11/16 03:45:00,IJA0101-00007754,0,-5
2018/11/16 04:00:00,IJA0101-00007754,0,-5
