Date,ID,10[0] mA,37[0] bar
2018/11/12 00:15:00,IJA0101-00007754,4.63,0.78
2018/11/12 00:30:00,IJA0101-00007754,4.64,0.79
2018/11/12 00:45:00,IJA0101-00007754,4.67,0.83
2018/11/12 01:00:00,IJA0101-00007754,4.69,0.86
2018/11/12 01:15:00,IJA0101-00007754,4.94,1.17
2018/11/12 01:30:00,IJA0101-00007754,5.04,1.3
2018/11/12 01:45:00,IJA0101-00007754,5.1,1.37
2018/11/12 02:00:00,IJA0101-00007754,5.16,1.44
2018/11/12 02:15:00,IJA0101-00007754,5.19,1.48
2018/11/12 02:30:00,IJA0101-00007754,5.22,1.52
2018/11/12 02:45:00,IJA0101-00007754,5.21,1.51
2018/11/12 03:00:00,IJA0101-00007754,5.23,1.53
2018/11/12 03:15:00,IJA0101-00007754,5.2,1.49
2018/11/12 03:30:00,IJA0101-00007754,5.21,1.51
2018/11/12 03:45:00,IJA0101-00007754,5.21,1.51
2018/11/12 04:00:00,IJA0101-00007754,5.18,1.47
