Date,ID,10[0] mA,37[0] bar
2018/11/09 10:41:00,IJA0101-00007754,4.26,0.32
2018/11/09 11:41:00,IJA0101-00007754,4.26,0.32
2018/11/09 11:41:10,IJA0101-00007754,4.26,0.32
2018/11/09 11:41:20,IJA0101-00007754,4.26,0.32
2018/11/09 11:41:30,IJA0101-00007754,4.26,0.32
2018/11/09 11:41:40,IJA0101-00007754,4.25,0.31
2018/11/09 11:41:50,IJA0101-00007754,4.26,0.32
2018/11/09 11:42:00,IJA0101-00007754,4.23,0.29
2018/11/09 11:42:10,IJA0101-00007754,4.25,0.31
2018/11/09 11:42:20,IJA0101-00007754,4.25,0.31
2018/11/09 11:42:30,IJA0101-00007754,4.25,0.31
2018/11/09 11:42:40,IJA0101-00007754,4.25,0.31
2018/11/09 11:42:50,IJA0101-00007754,4.23,0.29
2018/11/09 11:43:00,IJA0101-00007754,4.25,0.31
2018/11/09 11:43:10,IJA0101-00007754,4.23,0.29
2018/11/09 11:43:20,IJA0101-00007754,4.23,0.29
2018/11/09 11:43:30,IJA0101-00007754,4.23,0.28
2018/11/09 11:43:40,IJA0101-00007754,4.23,0.28
2018/11/09 11:43:50,IJA0101-00007754,4.23,0.28
2018/11/09 11:44:00,IJA0101-00007754,4.23,0.28
2018/11/09 11:44:10,IJA0101-00007754,4.21,0.27
2018/11/09 11:44:20,IJA0101-00007754,4.21,0.27
2018/11/09 11:44:30,IJA0101-00007754,4.21,0.27
2018/11/09 11:44:40,IJA0101-00007754,4.25,0.31
2018/11/09 11:44:50,IJA0101-00007754,4.23,0.29
2018/11/09 11:45:00,IJA0101-00007754,4.25,0.31
2018/11/09 11:45:10,IJA0101-00007754,4.23,0.29
2018/11/09 11:45:20,IJA0101-00007754,4.23,0.28
2018/11/09 11:45:30,IJA0101-00007754,4.23,0.29
2018/11/09 11:45:40,IJA0101-00007754,4.23,0.29
2018/11/09 11:45:50,IJA0101-00007754,4.23,0.29
2018/11/09 11:46:00,IJA0101-00007754,4.23,0.29
2018/11/09 11:46:10,IJA0101-00007754,4.23,0.29
2018/11/09 11:46:20,IJA0101-00007754,4.23,0.28
2018/11/09 11:46:30,IJA0101-00007754,4.23,0.28
2018/11/09 11:46:40,IJA0101-00007754,4.23,0.29
2018/11/09 11:46:50,IJA0101-00007754,4.23,0.28
2018/11/09 11:47:00,IJA0101-00007754,4.23,0.28
2018/11/09 11:47:10,IJA0101-00007754,4.23,0.28
2018/11/09 11:47:20,IJA0101-00007754,4.21,0.27
2018/11/09 11:47:30,IJA0101-00007754,4.23,0.29
2018/11/09 11:47:40,IJA0101-00007754,4.23,0.28
2018/11/09 11:47:50,IJA0101-00007754,4.21,0.27
2018/11/09 11:48:00,IJA0101-00007754,4.21,0.27
2018/11/09 11:48:10,IJA0101-00007754,4.23,0.28
2018/11/09 11:48:20,IJA0101-00007754,4.21,0.27
2018/11/09 11:48:30,IJA0101-00007754,4.21,0.27
2018/11/09 11:48:40,IJA0101-00007754,4.21,0.27
2018/11/09 11:48:50,IJA0101-00007754,4.21,0.27
2018/11/09 11:49:00,IJA0101-00007754,4.21,0.27
2018/11/09 11:49:10,IJA0101-00007754,4.21,0.27
2018/11/09 11:49:20,IJA0101-00007754,4.21,0.27
2018/11/09 11:49:30,IJA0101-00007754,4.21,0.27
2018/11/09 11:49:40,IJA0101-00007754,4.21,0.27
2018/11/09 11:49:50,IJA0101-00007754,4.21,0.27
2018/11/09 11:50:00,IJA0101-00007754,4.23,0.28
2018/11/09 11:50:10,IJA0101-00007754,4.23,0.28
2018/11/09 11:50:20,IJA0101-00007754,4.23,0.28
2018/11/09 11:50:30,IJA0101-00007754,4.23,0.28
2018/11/09 11:50:40,IJA0101-00007754,4.23,0.28
2018/11/09 11:50:50,IJA0101-00007754,4.23,0.28
2018/11/09 11:51:00,IJA0101-00007754,4.23,0.28
2018/11/09 11:51:10,IJA0101-00007754,4.21,0.27
2018/11/09 11:51:20,IJA0101-00007754,4.21,0.27
2018/11/09 11:51:30,IJA0101-00007754,4.23,0.28
2018/11/09 11:51:40,IJA0101-00007754,4.23,0.28
2018/11/09 11:51:50,IJA0101-00007754,4.23,0.28
2018/11/09 11:52:00,IJA0101-00007754,4.21,0.27
2018/11/09 11:52:10,IJA0101-00007754,4.23,0.28
