Date,ID,10[0] mA,37[0] bar
2018/11/15 04:15:00,IJA0101-00007754,0,-5
2018/11/15 04:30:00,IJA0101-00007754,0,-5
2018/11/15 04:45:00,IJA0101-00007754,0,-5
2018/11/15 05:00:00,IJA0101-00007754,0,-5
2018/11/15 05:15:00,IJA0101-00007754,0,-5
2018/11/15 05:30:00,IJA0101-00007754,0,-5
2018/11/15 05:45:00,IJA0101-00007754,0,-5
2018/11/15 06:00:00,IJA0101-00007754,0,-5
2018/11/15 06:15:00,IJA0101-00007754,0,-5
2018/11/15 06:30:00,IJA0101-00007754,0,-5
2018/11/15 06:45:00,IJA0101-00007754,0,-5
2018/11/15 07:00:00,IJA0101-00007754,0,-5
2018/11/15 07:15:00,IJA0101-00007754,0,-5
2018/11/15 07:30:00,IJA0101-00007754,0,-5
2018/11/15 07:45:00,IJA0101-00007754,0,-5
2018/11/15 08:00:00,IJA0101-00007754,0,-5
