Date,ID,22[0] ,39[0] m3
2018/11/19 12:14:59,IJA0101-00007754,0,0
2018/11/19 12:29:59,IJA0101-00007754,0,0
2018/11/19 12:44:59,IJA0101-00007754,0,0
2018/11/19 12:59:59,IJA0101-00007754,0,0
2018/11/19 13:14:59,IJA0101-00007754,0,0
2018/11/19 13:29:59,IJA0101-00007754,0,0
2018/11/19 13:44:59,IJA0101-00007754,0,0
2018/11/19 13:59:59,IJA0101-00007754,0,0
2018/11/19 14:14:59,IJA0101-00007754,0,0
2018/11/19 14:29:59,IJA0101-00007754,0,0
2018/11/19 14:44:59,IJA0101-00007754,0,0
2018/11/19 14:59:59,IJA0101-00007754,0,0
2018/11/19 15:14:59,IJA0101-00007754,0,0
2018/11/19 15:29:59,IJA0101-00007754,0,0
2018/11/19 15:44:59,IJA0101-00007754,0,0
2018/11/19 15:59:59,IJA0101-00007754,0,0
