Date,ID,22[0] ,39[0] m3
2018/11/14 20:14:59,IJA0101-00007754,0,0
2018/11/14 20:29:59,IJA0101-00007754,0,0
2018/11/14 20:44:59,IJA0101-00007754,0,0
2018/11/14 20:59:59,IJA0101-00007754,0,0
2018/11/14 21:14:59,IJA0101-00007754,0,0
2018/11/14 21:29:59,IJA0101-00007754,0,0
2018/11/14 21:44:59,IJA0101-00007754,0,0
2018/11/14 21:59:59,IJA0101-00007754,0,0
2018/11/14 22:14:59,IJA0101-00007754,0,0
2018/11/14 22:29:59,IJA0101-00007754,0,0
2018/11/14 22:44:59,IJA0101-00007754,0,0
2018/11/14 22:59:59,IJA0101-00007754,0,0
2018/11/14 23:14:59,IJA0101-00007754,0,0
2018/11/14 23:29:59,IJA0101-00007754,0,0
2018/11/14 23:44:59,IJA0101-00007754,0,0
2018/11/14 23:59:59,IJA0101-00007754,0,0
