Date,ID,22[0] ,39[0] m3
2018/11/17 04:14:59,IJA0101-00007754,0,0
2018/11/17 04:29:59,IJA0101-00007754,0,0
2018/11/17 04:44:59,IJA0101-00007754,0,0
2018/11/17 04:59:59,IJA0101-00007754,0,0
2018/11/17 05:14:59,IJA0101-00007754,0,0
2018/11/17 05:29:59,IJA0101-00007754,0,0
2018/11/17 05:44:59,IJA0101-00007754,0,0
2018/11/17 05:59:59,IJA0101-00007754,0,0
2018/11/17 06:14:59,IJA0101-00007754,0,0
2018/11/17 06:29:59,IJA0101-00007754,0,0
2018/11/17 06:44:59,IJA0101-00007754,0,0
2018/11/17 06:59:59,IJA0101-00007754,0,0
2018/11/17 07:14:59,IJA0101-00007754,0,0
2018/11/17 07:29:59,IJA0101-00007754,0,0
2018/11/17 07:44:59,IJA0101-00007754,0,0
2018/11/17 07:59:59,IJA0101-00007754,0,0
